module golang_messenger

go 1.21

require (
	github.com/golang-jwt/jwt v3.2.2+incompatible
	github.com/heetch/confita v0.10.0
	github.com/labstack/echo/v4 v4.11.1
	github.com/lib/pq v1.10.9
	github.com/swaggo/echo-swagger v1.4.1
	github.com/swaggo/swag v1.16.2
)

require (
	github.com/BurntSushi/toml v0.3.1 // indirect
	github.com/KyleBanks/depth v1.2.1 // indirect
	github.com/PuerkitoBio/purell v1.1.1 // indirect
	github.com/PuerkitoBio/urlesc v0.0.0-20170810143723-de5bf2ad4578 // indirect
	github.com/ghodss/yaml v1.0.0 // indirect
	github.com/go-openapi/jsonpointer v0.19.5 // indirect
	github.com/go-openapi/jsonreference v0.19.6 // indirect
	github.com/go-openapi/spec v0.20.4 // indirect
	github.com/go-openapi/swag v0.19.15 // indirect
	github.com/josharian/intern v1.0.0 // indirect
	github.com/mailru/easyjson v0.7.7 // indirect
	github.com/pkg/errors v0.8.1 // indirect
	github.com/swaggo/files/v2 v2.0.0 // indirect
	golang.org/x/tools v0.7.0 // indirect
	gopkg.in/yaml.v2 v2.4.0 // indirect
)

require (
	github.com/gorilla/websocket v1.5.0
	github.com/labstack/gommon v0.4.0 // indirect
	github.com/mattn/go-colorable v0.1.13 // indirect
	github.com/mattn/go-isatty v0.0.19 // indirect
	github.com/valyala/bytebufferpool v1.0.0 // indirect
	github.com/valyala/fasttemplate v1.2.2 // indirect
	golang.org/x/crypto v0.13.0
	golang.org/x/net v0.15.0 // indirect
	golang.org/x/sys v0.12.0 // indirect
	golang.org/x/text v0.13.0 // indirect
)
